{
  "entrypoint": "index.html",
  "shell": "src/my-app.html",
  "fragments": [
    "src/my-view1.html",
    "src/my-view2.html",
    "src/my-view3.html",
    "src/my-view404.html",
  "src/my-recursos.html",
	"src/my-estadisticas.html"
  

	

	
  ],
  "sources": [
    "images/**/*",
    "src/**/*"
  ],
  "extraDependencies": [
    "bower_components/webcomponentsjs/*.js",
    "!bower_components/webcomponentsjs/gulpfile.js",
    "scripts/*.js",
    "manifest.json"
  ],
  "lint": {
    "rules": ["polymer-2"]
  }
}
